{
  "name": "Parameters",
  "keywords": "variables, OSC, JSON, ui",
  "description": "A usefull parameter system.",
  "repository":
  {
    "type": "git",
    "url": "https://gitlab.com/maxd/param"
  },
  "version": "0.1.0",
  "frameworks": "arduino",
  "platforms": ""
}
